Point(1) = { 0,0,0};
Point(2) = { 6,0,0};
Point(3) = {12,0,0};
Point(4) = {14,0,0};
Point(5) = {17,0,0};
Point(6) = {35,0,0};
Point(7) = {35,0,-0.4};
Point(8) = {17,0,-0.4};
Point(9) = {14,0,-0.1};
Point(10)= {12,0,-0.1};
Point(11)= { 6,0,-0.4};
Point(12)= { 0,0,-0.4};

Line(1) = { 1, 2}; Transfinite Line {1} = 301;
Line(2) = { 2,11}; Transfinite Line {2} = 11;
Line(3) = {11,12}; Transfinite Line {3} = 301;
Line(4) = {12, 1}; Transfinite Line {4} = 11;
Line Loop(1) = {1:4};
Ruled Surface(1) = {1};
Transfinite Surface{1} = {1,2,11,12};
Recombine Surface{1};
Line(5) = { 2, 3}; Transfinite Line {5} = 301;
Line(6) = { 3,10}; Transfinite Line {6} = 11;
Line(7) = {10,11}; Transfinite Line {7} = 301;
Line(8) = {11, 2}; Transfinite Line {8} = 11;
Line Loop(2) = {5:8};
Ruled Surface(2) = {2};
Transfinite Surface{2} = {2,3,10,11};
Recombine Surface{2};
Line( 9) = { 3, 4}; Transfinite Line { 9} = 101;
Line(10) = { 4, 9}; Transfinite Line {10} = 11;
Line(11) = { 9,10}; Transfinite Line {11} = 101;
Line(12) = {10, 3}; Transfinite Line {12} = 11;
Line Loop(3) = {9:12};
Ruled Surface(3) = {3};
Transfinite Surface{3} = {3,4,9,10};
Recombine Surface{3};
Line(13) = {4,5}; Transfinite Line {13} = 151;
Line(14) = {5,8}; Transfinite Line {14} = 11;
Line(15) = {8,9}; Transfinite Line {15} = 151;
Line(16) = {9,4}; Transfinite Line {16} = 11;
Line Loop(4) = {13:16};
Ruled Surface(4) = {4};
Transfinite Surface{4} = {4,5,8,9};
Recombine Surface{4};
Line(17) = {5,6}; Transfinite Line {17} = 901;
Line(18) = {6,7}; Transfinite Line {18} = 11;
Line(19) = {7,8}; Transfinite Line {19} = 901;
Line(20) = {8,5}; Transfinite Line {20} = 11;
Line Loop(5) = {17:20};
Ruled Surface(5) = {5};
Transfinite Surface{5} = {5,6,7,8};
Recombine Surface{5};

out3[] = Extrude{0,0.1,0} {
  Surface{1:5}; Layers{1}; Recombine;
};
Physical Volume("internal") = {1:5};
Physical Surface("Symmetry_planes") = {1:5,42,64,86,108,130};
Physical Surface("Top") = {29,51,73,95,117};
Physical Surface("Bottom") = {37,59,81,103,125};
Physical Surface("Left") = {41};
Physical Surface("Right") = {121};
